Engine/Binaries/Win64/UE4Game.exe	2021-07-03T20:04:49.169Z
Engine/Binaries/Win64/turbojpeg.dll	2021-07-03T20:03:48.270Z
Engine/Extras/Redist/en-us/UE4PrereqSetup_x64.exe	2021-07-03T20:12:44.618Z
Engine/Binaries/ThirdParty/Oculus/OVRPlugin/OVRPlugin/Win64/OVRPlugin.dll	2021-07-03T20:01:16.448Z
Engine/Binaries/ThirdParty/DbgHelp/dbghelp.dll	2021-07-03T20:00:31.231Z
Engine/Binaries/ThirdParty/PhysX3/Win64/VS2015/PxFoundationPROFILE_x64.dll	2021-07-03T20:01:41.686Z
Engine/Binaries/ThirdParty/PhysX3/Win64/VS2015/PxPvdSDKPROFILE_x64.dll	2021-07-03T20:01:41.920Z
Engine/Binaries/ThirdParty/PhysX3/Win64/VS2015/PhysX3PROFILE_x64.dll	2021-07-03T20:01:41.120Z
Engine/Binaries/ThirdParty/PhysX3/Win64/VS2015/PhysX3CookingPROFILE_x64.dll	2021-07-03T20:01:40.323Z
Engine/Binaries/ThirdParty/PhysX3/Win64/VS2015/PhysX3CommonPROFILE_x64.dll	2021-07-03T20:01:39.390Z
Engine/Binaries/ThirdParty/PhysX3/Win64/VS2015/APEX_ClothingPROFILE_x64.dll	2021-07-03T20:01:35.176Z
Engine/Binaries/ThirdParty/PhysX3/Win64/VS2015/APEX_LegacyPROFILE_x64.dll	2021-07-03T20:01:37.104Z
Engine/Binaries/ThirdParty/PhysX3/Win64/VS2015/ApexFrameworkPROFILE_x64.dll	2021-07-03T20:01:38.188Z
Engine/Binaries/ThirdParty/PhysX3/Win64/VS2015/NvClothPROFILE_x64.dll	2021-07-03T20:01:38.685Z
Engine/Binaries/ThirdParty/Ogg/Win64/VS2015/libogg_64.dll	2021-07-03T20:01:16.486Z
Engine/Binaries/ThirdParty/Vorbis/Win64/VS2015/libvorbis_64.dll	2021-07-03T20:02:59.755Z
Engine/Binaries/ThirdParty/Vorbis/Win64/VS2015/libvorbisfile_64.dll	2021-07-03T20:02:59.757Z
Engine/Binaries/ThirdParty/NVIDIA/NVaftermath/Win64/GFSDK_Aftermath_Lib.x64.dll	2021-07-03T20:01:16.331Z
Engine/Binaries/ThirdParty/OpenVR/OpenVRv1_5_17/Win64/openvr_api.dll	2021-07-03T20:01:16.541Z
Engine/Binaries/ThirdParty/Windows/WinPixEventRuntime/x64/WinPixEventRuntime.dll	2021-07-03T20:02:59.874Z
Engine/Binaries/ThirdParty/Windows/XAudio2_9/x64/xaudio2_9redist.dll	2021-07-03T20:03:00.801Z
blank3.exe	2021-08-15T16:47:35.111Z
